[
    {
        "title": "title1",
        "slug": "slug1",
        "description": "description",
        "image": "defoalt.jpg"
    },
    {
        "title": "title2",
        "slug": "slug2",
        "description": "description",
        "image": "defoalt.jpg"
    },
    {
        "title": "title3",
        "slug": "slug3",
        "description": "description",
        "image": "defoalt.jpg"
    },
    {
        "title": "title4",
        "slug": "slug4",
        "description": "description",
        "image": "defoalt.jpg"
    },
    {
        "title": "title5",
        "slug": "slug5",
        "description": "description",
        "image": "defoalt.jpg"
    },
    {
        "title": "title6",
        "slug": "slug6",
        "description": "description",
        "image": "defoalt.jpg"
    },
    {
        "title": "title7",
        "slug": "slug7",
        "description": "description",
        "image": "defoalt.jpg"
    },
    {
        "title": "title8",
        "slug": "slug8",
        "description": "description",
        "image": "defoalt.jpg"
    }
]
