[
    {
        "title": "title1",
        "description": "description",
        "image": "defoalt.jpg"
    },
    {
        "title": "title2",
        "description": "description",
        "image": "defoalt.jpg"
    },
    {
        "title": "title3",
        "description": "description",
        "image": "defoalt.jpg"
    },
    {
        "title": "title4",
        "description": "description",
        "image": "defoalt.jpg"
    },
    {
        "title": "title5",
        "description": "description",
        "image": "defoalt.jpg"
    },
    {
        "title": "title6",
        "description": "description",
        "image": "defoalt.jpg"
    },
    {
        "title": "title7",
        "description": "description",
        "image": "defoalt.jpg"
    },
    {
        "title": "title8",
        "description": "description",
        "image": "defoalt.jpg"
    }
]
